<?xml version="1.0" encoding="utf-8"?>
<!-- Generator: Adobe Illustrator 19.0.0, SVG Export Plug-In . SVG Version: 6.00 Build 0)  -->
<svg version="1.1" id="Layer_1" xmlns="http://www.w3.org/2000/svg" xmlns:xlink="http://www.w3.org/1999/xlink" x="0px" y="0px"
	 viewBox="-41 164.89 512 512" enable-background="new -41 164.89 512 512" xml:space="preserve">
<g transform="translate(1 1)">
	<g>
		<path fill="#12253C" d="M416.494,175.378H11.506c-22.68,0-40.499,17.931-40.499,40.752v407.521
			c0,22.821,17.819,40.751,40.499,40.751h186.295h97.197h121.496c22.679,0,40.498-17.931,40.498-40.752V216.13
			C456.993,193.308,439.174,175.378,416.494,175.378z M214,648.101V485.094h-64.798V419.89H214v-57.053
			c0-46.457,35.639-85.579,80.997-89.655h72.898v65.204h-64.798c-13.77,0-24.299,10.595-24.299,24.451v57.053h80.998v65.204h-80.997
			v163.009L214,648.101L214,648.101z M440.793,623.65c0,13.856-10.529,24.451-24.299,24.451H294.997V501.394h80.997v-97.805h-80.997
			v-40.752c0-4.89,3.24-8.15,8.099-8.15h80.998v-97.805h-89.907c-54.268,4.89-96.388,51.348-96.388,105.955v40.752h-64.798v97.805
			H197.8v146.708H11.506c-13.77,0-24.299-10.595-24.299-24.451V216.13c0-13.856,10.529-24.451,24.299-24.451h404.989
			c13.77,0,24.299,10.595,24.299,24.451L440.793,623.65L440.793,623.65z"/>
	</g>
</g>
</svg>
